%YAML 1.1
%TAG !u! tag:unity3d.com,2011:
--- !u!114 &11400000
MonoBehaviour:
  m_ObjectHideFlags: 0
  m_CorrespondingSourceObject: {fileID: 0}
  m_PrefabInstance: {fileID: 0}
  m_PrefabAsset: {fileID: 0}
  m_GameObject: {fileID: 0}
  m_Enabled: 1
  m_EditorHideFlags: 0
  m_Script: {fileID: 11500000, guid: 61255d91771a7154482eed36a2a8de63, type: 3}
  m_Name: Card_Speed1
  m_EditorClassIdentifier: 
  cost: 5
  point: 5
  level: 1
  statusType: 2
  sprite: {fileID: 21300000, guid: 5dff8014cd60a104e8544bea305a950a, type: 3}
